[
{"Item": "Microbicida Microdyn Bot 90Ml", "Precio anterior": 40.0, "Precio actual": 40.0, "Tienda": "Soriana", "Fecha consulta": "14-07-20"},
{"Item": "Bactericida Spresh 125Ml 125 Mililitro Bote", "Precio anterior": 45.0, "Precio actual": 45.0, "Tienda": "Soriana", "Fecha consulta": "14-07-20"},
{"Item": "Coolnuts Mezcla De Arandanos 50Gr", "Precio anterior": 19.0, "Precio actual": 19.0, "Tienda": "Soriana", "Fecha consulta": "14-07-20"},
{"Item": "Flor Jamaica Soriana 200Gr", "Precio anterior": 57.9, "Precio actual": 57.9, "Tienda": "Soriana", "Fecha consulta": "14-07-20"},
{"Item": "Arandano 250Gr Genapro", "Precio anterior": 65.0, "Precio actual": 65.0, "Tienda": "Soriana", "Fecha consulta": "14-07-20"},
{"Item": "Almendra Natural 150Gr Genapro", "Precio anterior": 74.0, "Precio actual": 74.0, "Tienda": "Soriana", "Fecha consulta": "14-07-20"},
{"Item": "Canela Granel Kg", "Precio anterior": 720.0, "Precio actual": 720.0, "Tienda": "Soriana", "Fecha consulta": "14-07-20"},
{"Item": "Coco Rallado Soriana 100 Gramo Bolsa", "Precio anterior": 14.0, "Precio actual": 14.0, "Tienda": "Soriana", "Fecha consulta": "14-07-20"},
{"Item": "El Cuernito Uva Pasa 80 Gr Bol 80", "Precio anterior": 12.9, "Precio actual": 12.9, "Tienda": "Soriana", "Fecha consulta": "14-07-20"},
{"Item": "Flor Jamaica Granel Kg", "Precio anterior": 275.0, "Precio actual": 275.0, "Tienda": "Soriana", "Fecha consulta": "14-07-20"},
{"Item": "Saladino Cacahuate Blanco Tostado 300 Gr Pz", "Precio anterior": 34.0, "Precio actual": 34.0, "Tienda": "Soriana", "Fecha consulta": "14-07-20"},
{"Item": "Semilla Planta Da Vida Chia Bol", "Precio anterior": 29.8, "Precio actual": 29.8, "Tienda": "Soriana", "Fecha consulta": "14-07-20"},
{"Item": "Tamarindo Soriana 350Gr", "Precio anterior": 27.9, "Precio actual": 27.9, "Tienda": "Soriana", "Fecha consulta": "14-07-20"},
{"Item": "Verde Valle Arandano Deshidratado 75 Gr", "Precio anterior": 27.8, "Precio actual": 27.8, "Tienda": "Soriana", "Fecha consulta": "14-07-20"},
{"Item": "Cacahuate Mafer 90 Gramo Bolsa", "Precio anterior": 37.4, "Precio actual": 37.4, "Tienda": "Soriana", "Fecha consulta": "14-07-20"},
{"Item": "Canela Soriana 100Gr", "Precio anterior": 89.9, "Precio actual": 89.9, "Tienda": "Soriana", "Fecha consulta": "14-07-20"},
{"Item": "El Cuernito Coco Rallado 60 Gr Bol 60", "Precio anterior": 11.3, "Precio actual": 11.3, "Tienda": "Soriana", "Fecha consulta": "14-07-20"},
{"Item": "El Cuernito Uva Pasa 250 Gr Bol 250", "Precio anterior": 26.8, "Precio actual": 26.8, "Tienda": "Soriana", "Fecha consulta": "14-07-20"},
{"Item": "Hoja Soriana P/Tamal", "Precio anterior": 18.0, "Precio actual": 18.0, "Tienda": "Soriana", "Fecha consulta": "14-07-20"},
{"Item": "Piloncillo Granel Kg", "Precio anterior": 69.9, "Precio actual": 69.9, "Tienda": "Soriana", "Fecha consulta": "14-07-20"},
{"Item": "Saladino Ciruela Pasa Sin Hueso 300 Gr Pz", "Precio anterior": 55.0, "Precio actual": 55.0, "Tienda": "Soriana", "Fecha consulta": "14-07-20"},
{"Item": "Saladino Uva Pasa 300 Gr Pz", "Precio anterior": 43.0, "Precio actual": 43.0, "Tienda": "Soriana", "Fecha consulta": "14-07-20"},
{"Item": "Tamarindo Granel Kg", "Precio anterior": 49.9, "Precio actual": 49.9, "Tienda": "Soriana", "Fecha consulta": "14-07-20"},
{"Item": "Corazon Lechuga Nutribits Bol 3Pz", "Precio anterior": 32.9, "Precio actual": 32.9, "Tienda": "Soriana", "Fecha consulta": "14-07-20"},
{"Item": "Champi\u00f1on Blanco Granel Kg", "Precio anterior": 78.8, "Precio actual": 78.8, "Tienda": "Soriana", "Fecha consulta": "14-07-20"},
{"Item": "Espinaca Baby Leonali 125 Gr", "Precio anterior": 28.8, "Precio actual": 28.8, "Tienda": "Soriana", "Fecha consulta": "14-07-20"},
{"Item": "Champi\u00f1on San Miguel Blanco Char 225 Gr", "Precio anterior": 28.8, "Precio actual": 28.8, "Tienda": "Soriana", "Fecha consulta": "14-07-20"},
{"Item": "Champi\u00f1on San Miguel Seleccionado 225 Gr", "Precio anterior": 27.8, "Precio actual": 27.8, "Tienda": "Soriana", "Fecha consulta": "14-07-20"},
{"Item": "Florete Mr Lucky Brocoli Bol", "Precio anterior": 24.8, "Precio actual": 24.8, "Tienda": "Soriana", "Fecha consulta": "14-07-20"},
{"Item": "Espinaca Mr Lucky Popeye", "Precio anterior": 47.8, "Precio actual": 47.8, "Tienda": "Soriana", "Fecha consulta": "14-07-20"},
{"Item": "Ensalada Mr Lucky Italiana", "Precio anterior": 32.8, "Precio actual": 32.8, "Tienda": "Soriana", "Fecha consulta": "14-07-20"},
{"Item": "Ensalada Mr Lucky Cesar", "Precio anterior": 32.8, "Precio actual": 32.8, "Tienda": "Soriana", "Fecha consulta": "14-07-20"},
{"Item": "Ensalada Mr Lucky Espinaca Baby", "Precio anterior": 54.8, "Precio actual": 54.8, "Tienda": "Soriana", "Fecha consulta": "14-07-20"},
{"Item": "Ensalada Mr Lucky Mixta", "Precio anterior": 29.8, "Precio actual": 29.8, "Tienda": "Soriana", "Fecha consulta": "14-07-20"},
{"Item": "Florete Mr Lucky Coliflor Bol", "Precio anterior": 26.8, "Precio actual": 26.8, "Tienda": "Soriana", "Fecha consulta": "14-07-20"},
{"Item": "Champi\u00f1on M. Blanco Baby Bella 350 Gr", "Precio anterior": 46.8, "Precio actual": 46.8, "Tienda": "Soriana", "Fecha consulta": "14-07-20"},
{"Item": "Ensalada Mr Lucky Francesa", "Precio anterior": 29.8, "Precio actual": 29.8, "Tienda": "Soriana", "Fecha consulta": "14-07-20"},
{"Item": "Soya Germinada Granel Kg", "Precio anterior": 39.8, "Precio actual": 39.8, "Tienda": "Soriana", "Fecha consulta": "14-07-20"},
{"Item": "Tortil Fresh G Ensalad Saladas Bol 99Gr", "Precio anterior": 49.4, "Precio actual": 49.4, "Tienda": "Soriana", "Fecha consulta": "14-07-20"},
{"Item": "Tortil Fresh G Ensalad Santa F Bol 99Gr", "Precio anterior": 49.4, "Precio actual": 49.4, "Tienda": "Soriana", "Fecha consulta": "14-07-20"},
{"Item": "Platano Kg", "Precio anterior": 21.8, "Precio actual": 21.8, "Tienda": "Soriana", "Fecha consulta": "14-07-20"},
{"Item": "Limon C/Semilla Kg", "Precio anterior": 26.9, "Precio actual": 20.8, "Tienda": "Soriana", "Fecha consulta": "14-07-20"},
{"Item": "Mango Ataulfo Kg", "Precio anterior": 31.8, "Precio actual": 29.8, "Tienda": "Soriana", "Fecha consulta": "14-07-20"},
{"Item": "Papaya Kg", "Precio anterior": 29.8, "Precio actual": 29.8, "Tienda": "Soriana", "Fecha consulta": "14-07-20"},
{"Item": "Manzana Golden Delicious Kg", "Precio anterior": 44.9, "Precio actual": 29.8, "Tienda": "Soriana", "Fecha consulta": "14-07-20"},
{"Item": "Melon Chino Kg", "Precio anterior": 14.9, "Precio actual": 11.8, "Tienda": "Soriana", "Fecha consulta": "14-07-20"},
{"Item": "Pi\u00f1a Gota Miel Kg", "Precio anterior": 24.8, "Precio actual": 20.8, "Tienda": "Soriana", "Fecha consulta": "14-07-20"},
{"Item": "Naranja Kg", "Precio anterior": 32.9, "Precio actual": 20.8, "Tienda": "Soriana", "Fecha consulta": "14-07-20"},
{"Item": "Manzana Golden Bol Kg", "Precio anterior": 38.9, "Precio actual": 36.8, "Tienda": "Soriana", "Fecha consulta": "14-07-20"},
{"Item": "Fresa Char 454Gr", "Precio anterior": 69.9, "Precio actual": 59.8, "Tienda": "Soriana", "Fecha consulta": "14-07-20"},
{"Item": "Manzana Red Delicious Kg", "Precio anterior": 42.9, "Precio actual": 23.8, "Tienda": "Soriana", "Fecha consulta": "14-07-20"},
{"Item": "Sandia Con Semilla Kg", "Precio anterior": 8.9, "Precio actual": 8.9, "Tienda": "Soriana", "Fecha consulta": "14-07-20"},
{"Item": "Uva Blanca S/Semilla Kg", "Precio anterior": 49.9, "Precio actual": 36.8, "Tienda": "Soriana", "Fecha consulta": "14-07-20"},
{"Item": "Limon S/Semilla Kg", "Precio anterior": 19.9, "Precio actual": 14.8, "Tienda": "Soriana", "Fecha consulta": "14-07-20"},
{"Item": "Pera Danjou Kg", "Precio anterior": 49.9, "Precio actual": 36.8, "Tienda": "Soriana", "Fecha consulta": "14-07-20"},
{"Item": "Uva Roja S/Semilla Kg", "Precio anterior": 49.9, "Precio actual": 36.8, "Tienda": "Soriana", "Fecha consulta": "14-07-20"},
{"Item": "Kiwi Kg", "Precio anterior": 94.8, "Precio actual": 89.9, "Tienda": "Soriana", "Fecha consulta": "14-07-20"},
{"Item": "Manzana Royal Gala Kg", "Precio anterior": 44.9, "Precio actual": 36.8, "Tienda": "Soriana", "Fecha consulta": "14-07-20"},
{"Item": "Toronja Sangria Kg", "Precio anterior": 24.9, "Precio actual": 20.8, "Tienda": "Soriana", "Fecha consulta": "14-07-20"},
{"Item": "Mango Paraiso Kg", "Precio anterior": 19.8, "Precio actual": 14.8, "Tienda": "Soriana", "Fecha consulta": "14-07-20"},
{"Item": "Platano Macho Kg", "Precio anterior": 22.9, "Precio actual": 22.9, "Tienda": "Soriana", "Fecha consulta": "14-07-20"},
{"Item": "Durazno Prisco Kg", "Precio anterior": 49.8, "Precio actual": 49.8, "Tienda": "Soriana", "Fecha consulta": "14-07-20"},
{"Item": "Coco Agua", "Precio anterior": 21.5, "Precio actual": 21.5, "Tienda": "Soriana", "Fecha consulta": "14-07-20"},
{"Item": "Ciruela Roja Kg", "Precio anterior": 64.9, "Precio actual": 64.9, "Tienda": "Soriana", "Fecha consulta": "14-07-20"},
{"Item": "Jitomate  Huaje/Saladette", "Precio anterior": 29.9, "Precio actual": 9.8, "Tienda": "Soriana", "Fecha consulta": "14-07-20"},
{"Item": "Papa Blanca Kg", "Precio anterior": 34.9, "Precio actual": 29.8, "Tienda": "Soriana", "Fecha consulta": "14-07-20"},
{"Item": "Cebolla Blanca Kg", "Precio anterior": 16.9, "Precio actual": 9.8, "Tienda": "Soriana", "Fecha consulta": "14-07-20"},
{"Item": "Aguacate Kg", "Precio anterior": 66.9, "Precio actual": 66.9, "Tienda": "Soriana", "Fecha consulta": "14-07-20"},
{"Item": "Zanahoria Kg", "Precio anterior": 15.9, "Precio actual": 11.8, "Tienda": "Soriana", "Fecha consulta": "14-07-20"},
{"Item": "Apio Kg", "Precio anterior": 19.9, "Precio actual": 19.9, "Tienda": "Soriana", "Fecha consulta": "14-07-20"},
{"Item": "Cilantro Manojo", "Precio anterior": 7.9, "Precio actual": 5.8, "Tienda": "Soriana", "Fecha consulta": "14-07-20"},
{"Item": "Calabaza Italiana/Criolla Kg", "Precio anterior": 24.9, "Precio actual": 20.8, "Tienda": "Soriana", "Fecha consulta": "14-07-20"},
{"Item": "Pepino Verde Kg", "Precio anterior": 21.9, "Precio actual": 14.8, "Tienda": "Soriana", "Fecha consulta": "14-07-20"},
{"Item": "Lechuga Romana", "Precio anterior": 13.9, "Precio actual": 11.8, "Tienda": "Soriana", "Fecha consulta": "14-07-20"},
{"Item": "Chile Serrano Kg", "Precio anterior": 41.8, "Precio actual": 36.8, "Tienda": "Soriana", "Fecha consulta": "14-07-20"},
{"Item": "Espinaca Manojo", "Precio anterior": 7.95, "Precio actual": 5.8, "Tienda": "Soriana", "Fecha consulta": "14-07-20"},
{"Item": "Jicama Kg", "Precio anterior": 14.9, "Precio actual": 11.8, "Tienda": "Soriana", "Fecha consulta": "14-07-20"},
{"Item": "Aguacate Hass Malla Pza", "Precio anterior": 39.9, "Precio actual": 29.8, "Tienda": "Soriana", "Fecha consulta": "14-07-20"},
{"Item": "Nopal Entero Kg", "Precio anterior": 29.9, "Precio actual": 29.9, "Tienda": "Soriana", "Fecha consulta": "14-07-20"},
{"Item": "Tomatillo Verde Sin Cascara Kg", "Precio anterior": 32.9, "Precio actual": 14.8, "Tienda": "Soriana", "Fecha consulta": "14-07-20"},
{"Item": "Pimiento Morron Verde Kg", "Precio anterior": 61.8, "Precio actual": 61.8, "Tienda": "Soriana", "Fecha consulta": "14-07-20"},
{"Item": "Chayote S/Espinas Kg", "Precio anterior": 24.9, "Precio actual": 24.9, "Tienda": "Soriana", "Fecha consulta": "14-07-20"},
{"Item": "Lechuga Lisa/Orejona Pza", "Precio anterior": 12.9, "Precio actual": 12.9, "Tienda": "Soriana", "Fecha consulta": "14-07-20"},
{"Item": "Coliflor", "Precio anterior": 39.9, "Precio actual": 39.9, "Tienda": "Soriana", "Fecha consulta": "14-07-20"},
{"Item": "Elote Blanco", "Precio anterior": 7.9, "Precio actual": 5.8, "Tienda": "Soriana", "Fecha consulta": "14-07-20"},
{"Item": "Ajo Granel Kg", "Precio anterior": 100.0, "Precio actual": 100.0, "Tienda": "Soriana", "Fecha consulta": "14-07-20"},
{"Item": "Chile Jalape\u00f1o/Cuaresme\u00f1o Kg", "Precio anterior": 25.8, "Precio actual": 20.8, "Tienda": "Soriana", "Fecha consulta": "14-07-20"},
{"Item": "Chile Pimiento Morron Rojo Kg", "Precio anterior": 89.9, "Precio actual": 89.9, "Tienda": "Soriana", "Fecha consulta": "14-07-20"},
{"Item": "Uva Roja Globo Kg", "Precio anterior": 59.9, "Precio actual": 49.8, "Tienda": "Soriana", "Fecha consulta": "14-07-20"},
{"Item": "Zarzamora", "Precio anterior": 39.9, "Precio actual": 39.9, "Tienda": "Soriana", "Fecha consulta": "14-07-20"},
{"Item": "Manzana Red Bol Kg", "Precio anterior": 39.9, "Precio actual": 36.8, "Tienda": "Soriana", "Fecha consulta": "14-07-20"},
{"Item": "Coco Fresco", "Precio anterior": 21.5, "Precio actual": 21.5, "Tienda": "Soriana", "Fecha consulta": "14-07-20"},
{"Item": "Limon Amarillo Kg", "Precio anterior": 54.9, "Precio actual": 54.9, "Tienda": "Soriana", "Fecha consulta": "14-07-20"},
{"Item": "Nectarina Kg", "Precio anterior": 64.8, "Precio actual": 64.8, "Tienda": "Soriana", "Fecha consulta": "14-07-20"},
{"Item": "Betabel Kg", "Precio anterior": 19.9, "Precio actual": 19.9, "Tienda": "Soriana", "Fecha consulta": "14-07-20"},
{"Item": "Col Blanca Kg", "Precio anterior": 13.9, "Precio actual": 13.9, "Tienda": "Soriana", "Fecha consulta": "14-07-20"},
{"Item": "Ejote Verde Kg", "Precio anterior": 49.9, "Precio actual": 49.9, "Tienda": "Soriana", "Fecha consulta": "14-07-20"},
{"Item": "Chile Poblano Kg", "Precio anterior": 42.8, "Precio actual": 36.8, "Tienda": "Soriana", "Fecha consulta": "14-07-20"},
{"Item": "Cebolla Cambray Manojo", "Precio anterior": 8.9, "Precio actual": 5.8, "Tienda": "Soriana", "Fecha consulta": "14-07-20"},
{"Item": "Cebolla Morada Kg", "Precio anterior": 37.9, "Precio actual": 37.9, "Tienda": "Soriana", "Fecha consulta": "14-07-20"},
{"Item": "Perejil Liso Manojo", "Precio anterior": 9.9, "Precio actual": 9.9, "Tienda": "Soriana", "Fecha consulta": "14-07-20"},
{"Item": "Acelga Manojo", "Precio anterior": 6.9, "Precio actual": 5.8, "Tienda": "Soriana", "Fecha consulta": "14-07-20"},
{"Item": "Jitomate/Tomate Bola Kg", "Precio anterior": 34.9, "Precio actual": 29.8, "Tienda": "Soriana", "Fecha consulta": "14-07-20"},
{"Item": "Lechuga Italiana", "Precio anterior": 12.9, "Precio actual": 12.9, "Tienda": "Soriana", "Fecha consulta": "14-07-20"},
{"Item": "Papa Cambray Kg", "Precio anterior": 24.9, "Precio actual": 24.9, "Tienda": "Soriana", "Fecha consulta": "14-07-20"},
{"Item": "Chile Pimiento Morron Amarillo Kg", "Precio anterior": 89.9, "Precio actual": 89.9, "Tienda": "Soriana", "Fecha consulta": "14-07-20"},
{"Item": "Lechuga Roja", "Precio anterior": 12.9, "Precio actual": 12.9, "Tienda": "Soriana", "Fecha consulta": "14-07-20"},
{"Item": "Chile Pimiento Morron Naranja Kg", "Precio anterior": 89.9, "Precio actual": 89.9, "Tienda": "Soriana", "Fecha consulta": "14-07-20"},
{"Item": "Hierbabuena Manojo", "Precio anterior": 8.95, "Precio actual": 8.95, "Tienda": "Soriana", "Fecha consulta": "14-07-20"},
{"Item": "Nopalito Limpio Kg", "Precio anterior": 29.9, "Precio actual": 29.9, "Tienda": "Soriana", "Fecha consulta": "14-07-20"},
{"Item": "Chile Arbol Granel Kg", "Precio anterior": 209.0, "Precio actual": 209.0, "Tienda": "Soriana", "Fecha consulta": "14-07-20"},
{"Item": "Chile Soriana Ancho Bol 100Gr", "Precio anterior": 27.9, "Precio actual": 27.9, "Tienda": "Soriana", "Fecha consulta": "14-07-20"},
{"Item": "Chile Soriana Mirasol Bol 100Gr", "Precio anterior": 22.9, "Precio actual": 22.9, "Tienda": "Soriana", "Fecha consulta": "14-07-20"},
{"Item": "Epazote Manojo", "Precio anterior": 9.9, "Precio actual": 9.9, "Tienda": "Soriana", "Fecha consulta": "14-07-20"},
{"Item": "Cebolla Rabo Kg", "Precio anterior": 29.9, "Precio actual": 29.9, "Tienda": "Soriana", "Fecha consulta": "14-07-20"},
{"Item": "Chicharo Vaina Kg", "Precio anterior": 49.9, "Precio actual": 49.9, "Tienda": "Soriana", "Fecha consulta": "14-07-20"},
{"Item": "Chile Ancho Seco Granel Kg", "Precio anterior": 189.9, "Precio actual": 189.9, "Tienda": "Soriana", "Fecha consulta": "14-07-20"},
{"Item": "Chile Arbol Verde Kg", "Precio anterior": 129.0, "Precio actual": 129.0, "Tienda": "Soriana", "Fecha consulta": "14-07-20"},
{"Item": "Platano Kg", "Precio anterior": 21.8, "Precio actual": 21.8, "Tienda": "Soriana", "Fecha consulta": "14-07-20"},
{"Item": "Limon C/Semilla Kg", "Precio anterior": 26.9, "Precio actual": 20.8, "Tienda": "Soriana", "Fecha consulta": "14-07-20"},
{"Item": "Mango Ataulfo Kg", "Precio anterior": 31.8, "Precio actual": 29.8, "Tienda": "Soriana", "Fecha consulta": "14-07-20"},
{"Item": "Papaya Kg", "Precio anterior": 29.8, "Precio actual": 29.8, "Tienda": "Soriana", "Fecha consulta": "14-07-20"},
{"Item": "Manzana Golden Delicious Kg", "Precio anterior": 44.9, "Precio actual": 29.8, "Tienda": "Soriana", "Fecha consulta": "14-07-20"},
{"Item": "Melon Chino Kg", "Precio anterior": 14.9, "Precio actual": 11.8, "Tienda": "Soriana", "Fecha consulta": "14-07-20"},
{"Item": "Pi\u00f1a Gota Miel Kg", "Precio anterior": 24.8, "Precio actual": 20.8, "Tienda": "Soriana", "Fecha consulta": "14-07-20"},
{"Item": "Naranja Kg", "Precio anterior": 32.9, "Precio actual": 20.8, "Tienda": "Soriana", "Fecha consulta": "14-07-20"},
{"Item": "Manzana Golden Bol Kg", "Precio anterior": 38.9, "Precio actual": 36.8, "Tienda": "Soriana", "Fecha consulta": "14-07-20"},
{"Item": "Fresa Char 454Gr", "Precio anterior": 69.9, "Precio actual": 59.8, "Tienda": "Soriana", "Fecha consulta": "14-07-20"},
{"Item": "Manzana Red Delicious Kg", "Precio anterior": 42.9, "Precio actual": 23.8, "Tienda": "Soriana", "Fecha consulta": "14-07-20"},
{"Item": "Sandia Con Semilla Kg", "Precio anterior": 8.9, "Precio actual": 8.9, "Tienda": "Soriana", "Fecha consulta": "14-07-20"},
{"Item": "Uva Blanca S/Semilla Kg", "Precio anterior": 49.9, "Precio actual": 36.8, "Tienda": "Soriana", "Fecha consulta": "14-07-20"},
{"Item": "Limon S/Semilla Kg", "Precio anterior": 19.9, "Precio actual": 14.8, "Tienda": "Soriana", "Fecha consulta": "14-07-20"},
{"Item": "Pera Danjou Kg", "Precio anterior": 49.9, "Precio actual": 36.8, "Tienda": "Soriana", "Fecha consulta": "14-07-20"},
{"Item": "Uva Roja S/Semilla Kg", "Precio anterior": 49.9, "Precio actual": 36.8, "Tienda": "Soriana", "Fecha consulta": "14-07-20"},
{"Item": "Kiwi Kg", "Precio anterior": 94.8, "Precio actual": 89.9, "Tienda": "Soriana", "Fecha consulta": "14-07-20"},
{"Item": "Manzana Royal Gala Kg", "Precio anterior": 44.9, "Precio actual": 36.8, "Tienda": "Soriana", "Fecha consulta": "14-07-20"},
{"Item": "Toronja Sangria Kg", "Precio anterior": 24.9, "Precio actual": 20.8, "Tienda": "Soriana", "Fecha consulta": "14-07-20"},
{"Item": "Mango Paraiso Kg", "Precio anterior": 19.8, "Precio actual": 14.8, "Tienda": "Soriana", "Fecha consulta": "14-07-20"},
{"Item": "Platano Macho Kg", "Precio anterior": 22.9, "Precio actual": 22.9, "Tienda": "Soriana", "Fecha consulta": "14-07-20"},
{"Item": "Durazno Prisco Kg", "Precio anterior": 49.8, "Precio actual": 49.8, "Tienda": "Soriana", "Fecha consulta": "14-07-20"},
{"Item": "Coco Agua", "Precio anterior": 21.5, "Precio actual": 21.5, "Tienda": "Soriana", "Fecha consulta": "14-07-20"},
{"Item": "Ciruela Roja Kg", "Precio anterior": 64.9, "Precio actual": 64.9, "Tienda": "Soriana", "Fecha consulta": "14-07-20"},
{"Item": "Chile Chilaca Kg", "Precio anterior": 57.9, "Precio actual": 57.9, "Tienda": "Soriana", "Fecha consulta": "14-07-20"},
{"Item": "Chile Habanero Kg", "Precio anterior": 139.0, "Precio actual": 139.0, "Tienda": "Soriana", "Fecha consulta": "14-07-20"},
{"Item": "Chile Mirasol Granel", "Precio anterior": 139.0, "Precio actual": 139.0, "Tienda": "Soriana", "Fecha consulta": "14-07-20"},
{"Item": "Chile Tajin Arbol 75Gr", "Precio anterior": 29.9, "Precio actual": 29.9, "Tienda": "Soriana", "Fecha consulta": "14-07-20"},
{"Item": "Chile Tajin Guajillo 75Gr", "Precio anterior": 28.8, "Precio actual": 28.8, "Tienda": "Soriana", "Fecha consulta": "14-07-20"},
{"Item": "Col Morada Kg", "Precio anterior": 29.9, "Precio actual": 29.9, "Tienda": "Soriana", "Fecha consulta": "14-07-20"},
{"Item": "Elote Amarillo Cocido 2 Pz", "Precio anterior": 36.9, "Precio actual": 36.9, "Tienda": "Soriana", "Fecha consulta": "14-07-20"},
{"Item": "Esparrago Garden Fresh", "Precio anterior": 129.0, "Precio actual": 129.0, "Tienda": "Soriana", "Fecha consulta": "14-07-20"},
{"Item": "Perejil Chino Manojo", "Precio anterior": 10.95, "Precio actual": 10.95, "Tienda": "Soriana", "Fecha consulta": "14-07-20"},
{"Item": "Tomatillo Milpero Kg", "Precio anterior": 79.9, "Precio actual": 79.9, "Tienda": "Soriana", "Fecha consulta": "14-07-20"},
{"Item": "Chile Caribe Kg", "Precio anterior": 69.8, "Precio actual": 69.8, "Tienda": "Soriana", "Fecha consulta": "14-07-20"},
{"Item": "Chile Soriana Pasilla 100 Gr", "Precio anterior": 24.9, "Precio actual": 24.9, "Tienda": "Soriana", "Fecha consulta": "14-07-20"},
{"Item": "Chile Tajin Ancho 75Gr", "Precio anterior": 30.9, "Precio actual": 30.9, "Tienda": "Soriana", "Fecha consulta": "14-07-20"},
{"Item": "Pimiento Semaforo Bolsa 1 Pz", "Precio anterior": 64.9, "Precio actual": 64.9, "Tienda": "Soriana", "Fecha consulta": "14-07-20"},
{"Item": "Jitomate  Huaje/Saladette", "Precio anterior": 29.9, "Precio actual": 9.8, "Tienda": "Soriana", "Fecha consulta": "14-07-20"},
{"Item": "Papa Blanca Kg", "Precio anterior": 34.9, "Precio actual": 29.8, "Tienda": "Soriana", "Fecha consulta": "14-07-20"},
{"Item": "Cebolla Blanca Kg", "Precio anterior": 16.9, "Precio actual": 9.8, "Tienda": "Soriana", "Fecha consulta": "14-07-20"},
{"Item": "Aguacate Kg", "Precio anterior": 66.9, "Precio actual": 66.9, "Tienda": "Soriana", "Fecha consulta": "14-07-20"},
{"Item": "Zanahoria Kg", "Precio anterior": 15.9, "Precio actual": 11.8, "Tienda": "Soriana", "Fecha consulta": "14-07-20"},
{"Item": "Apio Kg", "Precio anterior": 19.9, "Precio actual": 19.9, "Tienda": "Soriana", "Fecha consulta": "14-07-20"},
{"Item": "Cilantro Manojo", "Precio anterior": 7.9, "Precio actual": 5.8, "Tienda": "Soriana", "Fecha consulta": "14-07-20"},
{"Item": "Calabaza Italiana/Criolla Kg", "Precio anterior": 24.9, "Precio actual": 20.8, "Tienda": "Soriana", "Fecha consulta": "14-07-20"},
{"Item": "Pepino Verde Kg", "Precio anterior": 21.9, "Precio actual": 14.8, "Tienda": "Soriana", "Fecha consulta": "14-07-20"},
{"Item": "Lechuga Romana", "Precio anterior": 13.9, "Precio actual": 11.8, "Tienda": "Soriana", "Fecha consulta": "14-07-20"},
{"Item": "Chile Serrano Kg", "Precio anterior": 41.8, "Precio actual": 36.8, "Tienda": "Soriana", "Fecha consulta": "14-07-20"},
{"Item": "Espinaca Manojo", "Precio anterior": 7.95, "Precio actual": 5.8, "Tienda": "Soriana", "Fecha consulta": "14-07-20"},
{"Item": "Jicama Kg", "Precio anterior": 14.9, "Precio actual": 11.8, "Tienda": "Soriana", "Fecha consulta": "14-07-20"},
{"Item": "Aguacate Hass Malla Pza", "Precio anterior": 39.9, "Precio actual": 29.8, "Tienda": "Soriana", "Fecha consulta": "14-07-20"},
{"Item": "Nopal Entero Kg", "Precio anterior": 29.9, "Precio actual": 29.9, "Tienda": "Soriana", "Fecha consulta": "14-07-20"},
{"Item": "Tomatillo Verde Sin Cascara Kg", "Precio anterior": 32.9, "Precio actual": 14.8, "Tienda": "Soriana", "Fecha consulta": "14-07-20"},
{"Item": "Pimiento Morron Verde Kg", "Precio anterior": 61.8, "Precio actual": 61.8, "Tienda": "Soriana", "Fecha consulta": "14-07-20"},
{"Item": "Chayote S/Espinas Kg", "Precio anterior": 24.9, "Precio actual": 24.9, "Tienda": "Soriana", "Fecha consulta": "14-07-20"},
{"Item": "Lechuga Lisa/Orejona Pza", "Precio anterior": 12.9, "Precio actual": 12.9, "Tienda": "Soriana", "Fecha consulta": "14-07-20"},
{"Item": "Coliflor", "Precio anterior": 39.9, "Precio actual": 39.9, "Tienda": "Soriana", "Fecha consulta": "14-07-20"},
{"Item": "Elote Blanco", "Precio anterior": 7.9, "Precio actual": 5.8, "Tienda": "Soriana", "Fecha consulta": "14-07-20"},
{"Item": "Ajo Granel Kg", "Precio anterior": 100.0, "Precio actual": 100.0, "Tienda": "Soriana", "Fecha consulta": "14-07-20"},
{"Item": "Chile Jalape\u00f1o/Cuaresme\u00f1o Kg", "Precio anterior": 25.8, "Precio actual": 20.8, "Tienda": "Soriana", "Fecha consulta": "14-07-20"},
{"Item": "Chile Pimiento Morron Rojo Kg", "Precio anterior": 89.9, "Precio actual": 89.9, "Tienda": "Soriana", "Fecha consulta": "14-07-20"}
]